233674 669525 509
145202 279281 443
871318 795897 525
831206 268803 509
944189 96445 525
365143 444111 449
537844 754776 509
243051 483240 449
919828 418524 525
780203 516362 509
890732 100640 525
739856 455055 509
340194 212507 443
502519 972365 525
89715 402973 443
817867 315192 509
658624 267400 509
798306 615705 509
734373 355777 509
372558 128658 443
908084 553181 525
115027 909568 525
208881 247909 443
352534 324597 441
414269 604826 470
153940 345683 443
884864 511670 525
887561 964754 507
906300 597271 525
29308 525317 470
677127 253786 509
478601 717975 509
136472 637645 509
944644 429823 525
987278 490068 525
356230 381833 423
452746 805779 509
75928 316477 443
970330 232852 525
941253 261595 525
208228 260775 443
563794 274383 470
324384 916776 525
962761 212985 525
330288 921760 525
615405 822425 509
94856 44421 351
586529 501029 470
223035 430493 449
983623 273469 525
338160 721192 509
379476 650692 509
921014 517679 525
734047 13531 509
262646 159794 443
903391 846679 445
362289 339561 441
742418 651982 504
363118 237120 441
599255 707810 509
310611 631929 509
832832 26033 509
485145 22476 449
724481 154046 509
103378 442477 449
657013 710360 504
933264 247249 525
765742 693206 504
242432 468673 449
600140 898852 525
470153 918936 525
912499 879712 476
730270 320339 509
830356 347775 509
841201 839904 357
330715 287158 389
865269 95989 525
972337 816080 525
679218 824996 504
545814 674357 509
416669 944190 525
923497 398649 525
419491 250228 449
548344 870370 525
353875 359975 379
190997 226323 386
427864 656864 509
949709 171926 525
677236 108599 509
639717 980387 525
252218 439309 449
374295 95831 443
407536 230120 443
924587 531444 525
491699 745186 509
850384 767399 525
961539 275819 525
517029 543773 439
345196 821514 509
963613 403718 525
377145 338008 441
184367 209733 373
391618 553724 470
530606 138720 470
106187 951404 525
515086 74670 470
98801 140078 354
779296 62276 509
642743 75999 509
19649 690649 509
520380 55006 470
802442 703067 504
812361 199638 509
537908 537259 346
600149 445422 470
806176 592963 509
282458 13856 443
792990 182317 509
754871 842886 525
533421 811017 509
515418 387352 470
379384 241542 441
556554 879030 525
650704 419506 509
26006 314864 443
910153 14611 525
229547 420422 449
188809 984574 525
978265 233182 525
656840 863159 525
939523 932434 507
788078 92385 509
869298 120972 525
915661 737983 525
893868 293069 525
520764 255782 470
535772 181724 470
902780 702869 525
906757 39330 525
730067 227216 509
593399 731719 509
264988 14740 443
840190 332011 525
242152 482147 449
743549 685798 504
613674 266845 470
39649 399490 443
90977 488600 449
110225 44535 354
827036 211559 509
488253 705291 509
43091 293238 443
895699 746771 525
606268 907755 525
781222 108912 509
502221 25446 449
930198 234817 525
157991 847273 525
66707 729343 509
889649 682233 525
910612 894300 476
56532 896351 525
213712 51269 383
527790 127197 470
100179 503116 449
630889 625884 509
698745 672691 442
314464 906116 525
841325 362288 525
465176 298811 449
481687 502906 426
845728 238172 525
570002 347555 470
629565 677237 442
218020 296638 443
684395 136258 509
42821 595296 470
58356 793896 509
610644 38241 470
185518 595748 470
637557 999657 525
565671 92402 470
771971 759410 468
917714 423445 525
245366 615687 470
941354 589452 525
651083 300540 509
26030 871131 525
166682 91691 383
513451 721313 509
241054 362833 441
343888 64145 443
668089 338484 509
825723 945961 525
240657 659953 509
506834 929820 525
752125 792350 468
284404 693469 509
382905 304958 441
837222 832928 357
758610 275224 509
325095 129590 443
457278 531728 470
519976 238138 470
85727 952804 525
482333 570772 470
129073 136920 344
795147 509248 509
24693 337768 443
838950 719131 525
657959 63934 509
697929 222284 509
434446 405482 449
293490 537746 470
175461 998453 525
895202 253792 525
229284 765603 509
345338 498905 449
206781 327793 443
82559 283237 443
701775 49658 509
52523 490846 449
990140 104483 525
55943 598901 470
487560 939260 525
60055 946752 525
545164 403925 470
646230 885433 525
962844 455443 525
13742 813941 509
769097 196278 509
616366 808383 509
917290 992266 507
80609 926597 525
474453 361179 449
658818 928525 525
186033 185393 316
92959 780936 509
942498 365594 525
3638 789985 509
10420 243498 443
478801 812903 509
253012 19150 443
235445 831666 509
702965 275302 509
116730 943961 525
604021 132297 470
388740 96728 443
825102 801398 450
506870 537899 470
